Psych201a, Problem Set 2: Tidying Data
…
performance_diff_d = performance_hyp_long_d |>
  # re-label variable so code is easier to read
  mutate(WithMusic = factor(WithMusic, levels=c(F, T), labels=c("PreMusic", "PostMusic"))) |>
  # now we remove columns we don't need (why might this be?)
  select(-c("Score", "Measurement")) |>
  pivot_wider(names_from=WithMusic, 
              values_from=z_scored_performance) |>
  mutate(ImprovementScore=PostMusic-PreMusic)

Let’s take a look at the end result:

performance_diff_d

# A tibble: 94 × 7
   Subject  Cond ConfrontationalGame MusicCondition PostMusic[,1] PreMusic[,1]
     <dbl> <dbl> <lgl>               <fct>                  <dbl>        <dbl>
 1       1     2 FALSE               Exciting             -0.150         0.265
 2       1     2 TRUE                Exciting             -1.30          0.317
 3       3     1 FALSE               Anger                -0.844        -2.91 
 4       3     1 TRUE                Anger                -0.283        -1.29 
 5       6     3 FALSE               Neutral               0.679         0.975
 6       6     3 TRUE                Neutral              -0.0272        0.546
 7       9     2 FALSE               Exciting              0.770         1.50 
 8       9     2 TRUE                Exciting             -2.07         -0.599
 9      10     1 FALSE               Anger                -0.678        -1.44 
10      10     1 TRUE                Anger                -0.0272       -1.06 
# ℹ 84 more rows
# ℹ 1 more variable: ImprovementScore <dbl[,1]>
…
